%!PS-Adobe-2.0 EPSF-2.0
%%Title: gdas_wdir_height_v.eps
%%Creator: fig2dev Version 3.2 Patchlevel 5c
%%CreationDate: Fri Oct 29 18:42:33 2010
%%BoundingBox: 0 0 437 339
%Magnification: 1.0000
%%EndComments
%%BeginProlog
/$F2psDict 200 dict def
$F2psDict begin
$F2psDict /mtrx matrix put
/col-1 {0 setgray} bind def
/col0 {0.000 0.000 0.000 srgb} bind def
/col1 {0.000 0.000 1.000 srgb} bind def
/col2 {0.000 1.000 0.000 srgb} bind def
/col3 {0.000 1.000 1.000 srgb} bind def
/col4 {1.000 0.000 0.000 srgb} bind def
/col5 {1.000 0.000 1.000 srgb} bind def
/col6 {1.000 1.000 0.000 srgb} bind def
/col7 {1.000 1.000 1.000 srgb} bind def
/col8 {0.000 0.000 0.560 srgb} bind def
/col9 {0.000 0.000 0.690 srgb} bind def
/col10 {0.000 0.000 0.820 srgb} bind def
/col11 {0.530 0.810 1.000 srgb} bind def
/col12 {0.000 0.560 0.000 srgb} bind def
/col13 {0.000 0.690 0.000 srgb} bind def
/col14 {0.000 0.820 0.000 srgb} bind def
/col15 {0.000 0.560 0.560 srgb} bind def
/col16 {0.000 0.690 0.690 srgb} bind def
/col17 {0.000 0.820 0.820 srgb} bind def
/col18 {0.560 0.000 0.000 srgb} bind def
/col19 {0.690 0.000 0.000 srgb} bind def
/col20 {0.820 0.000 0.000 srgb} bind def
/col21 {0.560 0.000 0.560 srgb} bind def
/col22 {0.690 0.000 0.690 srgb} bind def
/col23 {0.820 0.000 0.820 srgb} bind def
/col24 {0.500 0.190 0.000 srgb} bind def
/col25 {0.630 0.250 0.000 srgb} bind def
/col26 {0.750 0.380 0.000 srgb} bind def
/col27 {1.000 0.500 0.500 srgb} bind def
/col28 {1.000 0.630 0.630 srgb} bind def
/col29 {1.000 0.750 0.750 srgb} bind def
/col30 {1.000 0.880 0.880 srgb} bind def
/col31 {1.000 0.840 0.000 srgb} bind def

end

/cp {closepath} bind def
/ef {eofill} bind def
/gr {grestore} bind def
/gs {gsave} bind def
/sa {save} bind def
/rs {restore} bind def
/l {lineto} bind def
/m {moveto} bind def
/rm {rmoveto} bind def
/n {newpath} bind def
/s {stroke} bind def
/sh {show} bind def
/slc {setlinecap} bind def
/slj {setlinejoin} bind def
/slw {setlinewidth} bind def
/srgb {setrgbcolor} bind def
/rot {rotate} bind def
/sc {scale} bind def
/sd {setdash} bind def
/ff {findfont} bind def
/sf {setfont} bind def
/scf {scalefont} bind def
/sw {stringwidth} bind def
/tr {translate} bind def
/tnt {dup dup currentrgbcolor
  4 -2 roll dup 1 exch sub 3 -1 roll mul add
  4 -2 roll dup 1 exch sub 3 -1 roll mul add
  4 -2 roll dup 1 exch sub 3 -1 roll mul add srgb}
  bind def
/shd {dup dup currentrgbcolor 4 -2 roll mul 4 -2 roll mul
  4 -2 roll mul srgb} bind def
/$F2psBegin {$F2psDict begin /$F2psEnteredState save def} def
/$F2psEnd {$F2psEnteredState restore end} def

/pageheader {
save
newpath 0 339 moveto 0 0 lineto 437 0 lineto 437 339 lineto closepath clip newpath
-31.2 360.7 translate
1 -1 scale
$F2psBegin
10 setmiterlimit
0 slj 0 slc
 0.06299 0.06299 sc
} bind def
/pagefooter {
$F2psEnd
restore
} bind def
%%EndProlog
pageheader
%
% Fig objects follow
%
% 
% here starts figure with depth 50
% Polyline
%
% pen to black in case this eps object doesn't set color first
0 0 0 setrgbcolor
% Begin Imported EPS File: /home/barden/Projects/ESO-inkind/DOCS/DR05/User Manual/figures/gdas_wdir_height_v.ps
%%BeginDocument: /home/barden/Projects/ESO-inkind/DOCS/DR05/User Manual/figures/gdas_wdir_height_v.ps
%
n gs
495 360 tr
15.876147 -15.875740 sc
0 -338 tr
-28 -28 tr
sa
n 28 28 m 464 28 l 464 366 l 28 366 l cp clip n
countdictstack
mark
/showpage {} def
% EPS file follows:
%!PS-Adobe-3.0 EPSF-3.0
%%BoundingBox: 28 28 464 366
%% Creator: ESO-MIDAS/AGL AGL version 3.61
%% DocumentNeededResources: font Helvetica
%% LanguageLevel: 1
%% Pages: 1
%% EndComments
%% Page: 1 1
/cm { 28.34646 mul } def
1.0 cm 1.0 cm translate
% BEGINNING OF PLOT
0.077960552 0.077960552 scale
[] 0 setdash
1 6 mul setlinewidth
/m { moveto } def
/r { rlineto } def
/l { 8 { rlineto } repeat } def 
/c { { rlineto } repeat } def
/s { stroke } def
/n { newpath } def
2 setlinejoin
% BEGINNING OF PLOT
0.000000 0.000000 0.000000 setrgbcolor
1.000000 1.000000 1.000000 setrgbcolor
n 1 1 moveto
6909 1 lineto
6909 10000 lineto
1 10000 lineto
closepath fill
0.000000 0.000000 0.000000 setrgbcolor
0.000000 0.000000 0.000000 setrgbcolor
2 6 mul setlinewidth
n 946 547 m
4507 0 r s
n 946 547 m
0 118 r s
n 1249 547 m
0 74 r s
n 1551 547 m
0 74 r s
n 1854 547 m
0 74 r s
n 2156 547 m
0 74 r s
n 2459 547 m
0 74 r s
n 2459 547 m
0 118 r s
n 2761 547 m
0 74 r s
n 3064 547 m
0 74 r s
n 3366 547 m
0 74 r s
n 3669 547 m
0 74 r s
n 3971 547 m
0 74 r s
n 3971 547 m
0 118 r s
n 4274 547 m
0 74 r s
n 4576 547 m
0 74 r s
n 4879 547 m
0 74 r s
n 5181 547 m
0 74 r s
n 949 429 m
12 0 17 -5 11 -17 5 -28 0 -17 -5 -28 -11 -17 -17 -6 l
-12 0 -16 6 -12 17 -5 28 0 17 5 28 12 17 16 5 l
s
n 949 429 m
6 -6 5 -11 6 -28 0 -17 -6 -28 -5 -11 -6 -6 -11 -6 l
11 -5 r s
n 961 311 m
-5 6 -6 11 -6 28 0 17 6 28 6 11 5 6 11 5 l
-11 6 r s
n 2439 429 m
-11 -57 r s
n 2428 372 m
-6 -17 0 -6 6 -17 11 -11 17 -6 17 0 17 6 11 6 l
6 5 0 6 -6 11 -5 6 -17 5 -17 0 -17 -5 -11 -11 l
-5 -6 5 -5 2 c s
n 2473 384 m
-11 -5 -11 -11 -6 -17 0 -6 6 -17 11 -11 11 -6 7 c s
n 2439 429 m
56 0 r s
n 2439 423 m
28 6 28 0 2 c s
n 3907 406 m
0 -118 17 17 11 6 3 c s
n 3929 423 m
0 -112 r s
n 3907 311 m
50 0 r s
n 4025 429 m
11 0 17 -5 11 -17 6 -28 0 -17 -6 -28 -11 -17 -17 -6 l
-11 0 -17 6 -11 17 -6 28 0 17 6 28 11 17 17 5 l
s
n 4025 429 m
6 -6 6 -11 5 -28 0 -17 -5 -28 -6 -11 -6 -6 -11 -6 l
11 -5 r s
n 4036 311 m
-6 6 -6 11 -5 28 0 17 5 28 6 11 6 6 11 5 l
-11 6 r s
n 2618 192 m
0 -118 r s
n 2623 192 m
0 -118 r s
n 2691 192 m
0 -118 r s
n 2696 192 m
0 -118 r s
n 2601 192 m
39 0 r s
n 2674 192 m
39 0 r s
n 2623 136 m
68 0 r s
n 2601 74 m
39 0 r s
n 2674 74 m
39 0 r s
n 2753 119 m
-11 -11 -17 -6 -17 0 -11 6 -6 5 -5 12 0 11 67 0 l
11 11 17 6 11 0 17 -6 11 -11 6 -17 0 -11 -6 -17 l
s
n 2815 119 m
-6 11 0 17 2 c s
n 2781 153 m
11 -6 12 -11 5 -17 0 -11 -5 -17 -12 -11 -11 -6 7 c s
n 2865 192 m
-6 5 6 6 5 -6 -5 -5 4 c s
n 2865 153 m
0 -79 r s
n 2871 153 m
0 -79 r s
n 2848 153 m
23 0 r s
n 2848 74 m
40 0 r s
n 2955 153 m
11 0 11 -5 6 -6 5 -11 0 -11 -5 -12 -6 -5 -11 -6 l
-11 0 -12 6 -5 5 -6 12 0 11 6 11 5 6 12 5 l
s
n 2944 147 m
6 -12 0 -22 -6 -11 3 c s
n 2978 102 m
-5 11 0 22 5 12 3 c s
n 2983 142 m
-11 0 0 -6 11 6 6 5 4 c s
n 2938 108 m
5 -6 17 -6 28 0 17 -5 6 -11 0 -6 -6 -11 -5 -6 l
s
n 2927 85 m
-17 -5 -5 -12 0 -5 5 -12 17 -5 28 0 17 -6 6 -5 l
17 5 6 12 0 5 -6 12 -17 5 -34 0 6 c s
n 3045 192 m
0 -118 r s
n 3051 192 m
0 -118 r s
n 3051 136 m
0 -62 6 -11 17 -6 11 0 17 6 11 11 6 c s
n 3090 153 m
0 -62 5 -11 12 -6 3 c s
n 3028 192 m
23 0 r s
n 3028 74 m
40 0 r s
n 3090 74 m
40 0 r s
n 3175 192 m
6 11 11 6 11 0 12 -6 5 -17 0 -95 6 c s
n 3180 192 m
6 -6 6 -17 0 -95 3 c s
n 3158 153 m
45 0 r s
n 3377 215 m
0 -180 r s
n 3383 215 m
0 -180 r s
n 3377 215 m
40 0 r s
n 3377 35 m
40 0 r s
n 3462 192 m
0 -118 r s
n 3467 192 m
0 -118 r s
n 3524 153 m
-57 -56 r s
n 3495 119 m
34 -45 r s
n 3490 119 m
34 -45 r s
n 3445 192 m
22 0 r s
n 3507 153 m
33 0 r s
n 3445 74 m
39 0 r s
n 3507 74 m
39 0 r s
n 3591 153 m
0 -79 r s
n 3597 153 m
0 -79 r s
n 3597 136 m
0 -62 6 -11 17 -6 11 0 17 6 11 11 6 c s
n 3636 153 m
0 -62 6 -11 11 -6 3 c s
n 3659 136 m
0 -62 6 -11 17 -6 11 0 17 6 11 11 6 c s
n 3698 153 m
0 -62 6 -11 11 -6 3 c s
n 3574 153 m
23 0 r s
n 3574 74 m
40 0 r s
n 3636 74 m
39 0 r s
n 3698 74 m
39 0 r s
n 3805 215 m
0 -180 r s
n 3811 215 m
0 -180 r s
n 3771 215 m
40 0 r s
n 3771 35 m
40 0 r s
1 6 mul setlinewidth
2 6 mul setlinewidth
n 946 4181 m
4507 0 r s
n 946 4181 m
0 -118 r s
n 1249 4181 m
0 -74 r s
n 1551 4181 m
0 -74 r s
n 1854 4181 m
0 -74 r s
n 2156 4181 m
0 -74 r s
n 2459 4181 m
0 -74 r s
n 2459 4181 m
0 -118 r s
n 2761 4181 m
0 -74 r s
n 3064 4181 m
0 -74 r s
n 3366 4181 m
0 -74 r s
n 3669 4181 m
0 -74 r s
n 3971 4181 m
0 -74 r s
n 3971 4181 m
0 -118 r s
n 4274 4181 m
0 -74 r s
n 4576 4181 m
0 -74 r s
n 4879 4181 m
0 -74 r s
n 5181 4181 m
0 -74 r s
1 6 mul setlinewidth
2 6 mul setlinewidth
n 946 547 m
0 3634 r s
n 946 547 m
119 0 r s
n 946 698 m
74 0 r s
n 946 850 m
74 0 r s
n 946 1001 m
74 0 r s
n 946 1001 m
119 0 r s
n 946 1153 m
74 0 r s
n 946 1304 m
74 0 r s
n 946 1455 m
74 0 r s
n 946 1455 m
119 0 r s
n 946 1607 m
74 0 r s
n 946 1758 m
74 0 r s
n 946 1910 m
74 0 r s
n 946 1910 m
119 0 r s
n 946 2061 m
74 0 r s
n 946 2212 m
74 0 r s
n 946 2364 m
74 0 r s
n 946 2364 m
119 0 r s
n 946 2515 m
74 0 r s
n 946 2667 m
74 0 r s
n 946 2818 m
74 0 r s
n 946 2818 m
119 0 r s
n 946 2970 m
74 0 r s
n 946 3121 m
74 0 r s
n 946 3272 m
74 0 r s
n 946 3272 m
119 0 r s
n 946 3424 m
74 0 r s
n 946 3575 m
74 0 r s
n 946 3727 m
74 0 r s
n 946 3727 m
119 0 r s
n 946 3878 m
74 0 r s
n 946 4029 m
74 0 r s
n 946 4181 m
74 0 r s
n 946 4181 m
119 0 r s
n 401 538 m
101 0 r s
n 553 583 m
0 -118 17 17 11 6 3 c s
n 575 600 m
0 -112 r s
n 553 488 m
50 0 r s
n 665 606 m
5 11 17 6 23 0 17 -6 5 -11 0 -17 -5 -11 -17 -6 l
-23 0 -17 6 -5 11 0 17 4 c s
n 665 606 m
11 -6 6 -11 0 -17 -6 -11 -11 -6 5 c s
n 688 555 m
-11 6 -6 11 0 17 6 11 11 6 5 c s
n 665 555 m
23 0 17 -5 5 -6 6 -11 0 -23 -6 -11 -5 -6 -17 -5 l
-17 5 -5 6 -6 11 0 23 6 11 5 6 17 5 7 c s
n 665 555 m
11 -5 6 -6 5 -11 0 -23 -5 -11 -6 -6 -11 -5 7 c s
n 688 488 m
-11 5 -6 6 -5 11 0 23 5 11 6 6 11 5 7 c s
n 783 606 m
12 0 17 -5 11 -17 5 -28 0 -17 -5 -28 -11 -17 -17 -6 l
-12 0 -16 6 -12 17 -5 28 0 17 5 28 12 17 16 5 l
s
n 783 606 m
6 -6 5 -11 6 -28 0 -17 -6 -28 -5 -12 -6 -5 -11 -6 l
11 -5 r s
n 795 488 m
-5 5 -6 12 -6 28 0 17 6 28 6 11 5 6 11 5 l
-11 6 r s
n 401 993 m
101 0 r s
n 553 1038 m
0 -118 17 17 11 5 3 c s
n 575 1055 m
0 -113 r s
n 553 942 m
50 0 r s
n 643 1043 m
17 -5 23 0 17 5 11 12 0 5 -6 6 -5 -6 5 -5 l
-17 0 -17 -5 -5 -11 0 -17 5 -12 5 c s
n 688 1060 m
-11 -5 -6 -11 0 -17 6 -12 11 -5 5 c s
n 688 1010 m
-23 0 -17 -6 -5 -5 -6 -12 0 -16 6 -12 11 -11 11 -6 l
-5 -5 5 -6 6 6 0 5 -6 12 -5 5 -17 6 7 c s
n 705 998 m
-11 -6 -6 -5 -5 -12 0 -16 5 -17 5 c s
n 761 1060 m
-11 -56 r s
n 750 1004 m
-5 -17 0 -5 5 -17 12 -12 16 -5 17 0 17 5 11 6 l
5 6 0 5 -5 12 -6 5 -17 6 -17 0 -16 -6 -12 -11 l
-6 -5 6 -6 2 c s
n 795 1015 m
-11 -6 -11 -11 -6 -17 0 -5 6 -17 11 -12 11 -5 7 c s
n 761 1060 m
56 0 r s
n 761 1055 m
28 5 28 0 2 c s
n 502 1447 m
101 0 r s
n 710 1475 m
0 6 -6 17 -11 11 -17 6 -5 0 -17 -6 -12 -11 -5 -17 l
0 -34 6 -17 11 -11 17 -5 11 0 17 5 11 11 6 17 l
0 6 -5 11 -12 6 -16 0 -17 -6 -12 -11 -5 -11 -6 -23 l
-6 -6 6 -5 5 5 3 c s
n 671 1441 m
11 5 12 11 5 17 0 6 -5 17 -12 11 -11 6 7 c s
n 682 1514 m
-12 -6 -11 -11 -6 -11 -5 -23 0 -34 5 -17 12 -11 11 -5 l
s
n 783 1514 m
12 0 17 -6 11 -17 5 -28 0 -17 -5 -28 -11 -17 -17 -5 l
-12 0 -16 5 -12 17 -5 28 0 17 5 28 12 17 16 6 l
s
n 783 1514 m
6 -6 5 -11 6 -28 0 -17 -6 -28 -5 -11 -6 -6 -11 -5 l
11 -6 r s
n 795 1396 m
-5 6 -6 11 -6 28 0 17 6 28 6 11 5 6 11 6 l
-11 5 r s
n 496 1901 m
102 0 r s
n 682 1957 m
0 -106 r s
n 688 1969 m
0 -118 r s
n 688 1969 m
90 0 -62 -85 2 c s
n 665 1851 m
40 0 r s
n 761 1969 m
-11 -57 r s
n 750 1912 m
-5 -17 0 -6 5 -17 12 -11 16 -6 17 0 17 6 11 6 l
5 5 0 6 -5 11 -6 6 -17 5 -17 0 -16 -5 -12 -11 l
-6 -6 6 -5 2 c s
n 795 1924 m
-11 -5 -11 -11 -6 -17 0 -6 6 -17 11 -11 11 -6 7 c s
n 761 1969 m
56 0 r s
n 761 1963 m
28 6 28 0 2 c s
n 783 2423 m
12 0 17 -5 11 -17 5 -28 0 -17 -5 -28 -11 -17 -17 -6 l
-12 0 -16 6 -12 17 -5 28 0 17 5 28 12 17 16 5 l
s
n 783 2423 m
6 -6 5 -11 6 -28 0 -17 -6 -28 -5 -12 -6 -5 -11 -6 l
11 -5 r s
n 795 2305 m
-5 5 -6 12 -6 28 0 17 6 28 6 11 5 6 11 5 l
-11 6 r s
n 682 2866 m
0 -107 r s
n 688 2877 m
0 -118 r s
n 688 2877 m
90 0 -62 -84 2 c s
n 665 2759 m
40 0 r s
n 761 2877 m
-11 -56 r s
n 750 2821 m
-5 -17 0 -5 5 -17 12 -12 16 -5 17 0 17 5 11 6 l
5 6 0 5 -5 12 -6 5 -17 6 -17 0 -16 -6 -12 -11 l
-6 -5 6 -6 2 c s
n 795 2832 m
-11 -6 -11 -11 -6 -17 0 -5 6 -17 11 -12 11 -5 7 c s
n 761 2877 m
56 0 r s
n 761 2872 m
28 5 28 0 2 c s
n 710 3292 m
0 6 -6 17 -11 11 -17 6 -5 0 -17 -6 -12 -11 -5 -17 l
0 -34 6 -17 11 -11 17 -5 11 0 17 5 11 11 6 17 l
0 6 -5 11 -12 6 -16 0 -17 -6 -12 -11 -5 -11 -6 -23 l
-6 -6 6 -5 5 5 3 c s
n 671 3258 m
11 5 12 11 5 17 0 6 -5 17 -12 11 -11 6 7 c s
n 682 3331 m
-12 -6 -11 -11 -6 -11 -5 -23 0 -34 5 -17 12 -11 11 -5 l
s
n 783 3331 m
12 0 17 -6 11 -17 5 -28 0 -17 -5 -28 -11 -17 -17 -5 l
-12 0 -16 5 -12 17 -5 28 0 17 5 28 12 17 16 6 l
s
n 783 3331 m
6 -6 5 -11 6 -28 0 -17 -6 -28 -5 -11 -6 -6 -11 -5 l
11 -6 r s
n 795 3213 m
-5 6 -6 11 -6 28 0 17 6 28 6 11 5 6 11 6 l
-11 5 r s
n 553 3763 m
0 -118 17 17 11 6 3 c s
n 575 3780 m
0 -112 r s
n 553 3668 m
50 0 r s
n 643 3769 m
17 -6 23 0 17 6 11 11 0 6 -6 5 -5 -5 5 -6 l
-17 0 -17 -6 -5 -11 0 -17 5 -11 5 c s
n 688 3786 m
-11 -6 -6 -11 0 -17 6 -11 11 -6 5 c s
n 688 3735 m
-23 0 -17 -5 -5 -6 -6 -11 0 -17 6 -11 11 -11 11 -6 l
-5 -6 5 -5 6 5 0 6 -6 11 -5 6 -17 5 7 c s
n 705 3724 m
-11 -5 -6 -6 -5 -11 0 -17 5 -17 5 c s
n 761 3786 m
-11 -57 r s
n 750 3729 m
-5 -17 0 -6 5 -17 12 -11 16 -6 17 0 17 6 11 6 l
5 5 0 6 -5 11 -6 6 -17 5 -17 0 -16 -5 -12 -11 l
-6 -6 6 -5 2 c s
n 795 3741 m
-11 -5 -11 -11 -6 -17 0 -6 6 -17 11 -11 11 -6 7 c s
n 761 3786 m
56 0 r s
n 761 3780 m
28 6 28 0 2 c s
n 553 4217 m
0 -118 17 17 11 6 3 c s
n 575 4234 m
0 -112 r s
n 553 4122 m
50 0 r s
n 665 4240 m
5 11 17 6 23 0 17 -6 5 -11 0 -17 -5 -11 -17 -6 l
-23 0 -17 6 -5 11 0 17 4 c s
n 665 4240 m
11 -6 6 -11 0 -17 -6 -11 -11 -6 5 c s
n 688 4189 m
-11 6 -6 11 0 17 6 11 11 6 5 c s
n 665 4189 m
23 0 17 -5 5 -6 6 -11 0 -23 -6 -11 -5 -6 -17 -5 l
-17 5 -5 6 -6 11 0 23 6 11 5 6 17 5 7 c s
n 665 4189 m
11 -5 6 -6 5 -11 0 -23 -5 -11 -6 -6 -11 -5 7 c s
n 688 4122 m
-11 5 -6 6 -5 11 0 23 5 11 6 6 11 5 7 c s
n 783 4240 m
12 0 17 -5 11 -17 5 -28 0 -17 -5 -28 -11 -17 -17 -6 l
-12 0 -16 6 -12 17 -5 28 0 17 5 28 12 17 16 5 l
s
n 783 4240 m
6 -6 5 -11 6 -28 0 -17 -6 -28 -5 -12 -6 -5 -11 -6 l
11 -5 r s
n 795 4122 m
-5 5 -6 12 -6 28 0 17 6 28 6 11 5 6 11 5 l
-11 6 r s
n 52 1455 m
118 23 r s
n 52 1461 m
90 17 r s
n 52 1500 m
118 -22 r s
n 52 1500 m
118 23 r s
n 52 1506 m
90 17 r s
n 52 1545 m
118 -22 r s
n 52 1438 m
0 40 r s
n 52 1528 m
0 34 r s
n 52 1607 m
-5 -6 -6 6 6 6 5 -6 4 c s
n 91 1607 m
79 0 r s
n 91 1613 m
79 0 r s
n 91 1590 m
0 23 r s
n 170 1590 m
0 40 r s
n 91 1675 m
79 0 r s
n 91 1680 m
79 0 r s
n 108 1680 m
62 0 11 6 6 16 0 12 -6 17 -11 11 6 c s
n 91 1720 m
62 0 11 5 6 11 3 c s
n 91 1658 m
0 22 r s
n 170 1658 m
0 39 r s
n 170 1720 m
0 39 r s
n 52 1860 m
118 0 r s
n 52 1866 m
118 0 r s
n 108 1860 m
17 5 11 0 17 -5 11 -12 6 -16 0 -12 -6 -11 -11 -11 l
-11 11 -6 11 0 12 6 16 11 12 5 c s
n 91 1826 m
6 11 11 11 17 6 11 0 17 -6 11 -11 6 -11 7 c s
n 52 1843 m
0 23 r s
n 170 1860 m
0 23 r s
n 52 2102 m
118 0 r s
n 52 2108 m
118 0 r s
n 108 2102 m
17 5 11 0 17 -5 11 -12 6 -16 0 -12 -6 -11 -11 -11 l
-11 11 -6 11 0 12 6 16 11 12 5 c s
n 91 2068 m
6 11 11 11 17 6 11 0 17 -6 11 -11 6 -11 7 c s
n 52 2085 m
0 23 r s
n 170 2102 m
0 23 r s
n 52 2170 m
-5 -5 -6 5 6 6 5 -6 4 c s
n 91 2170 m
79 0 r s
n 91 2175 m
79 0 r s
n 91 2153 m
0 22 r s
n 170 2153 m
0 39 r s
n 91 2237 m
79 0 r s
n 91 2243 m
79 0 r s
n 125 2243 m
-6 -6 6 -6 5 0 6 6 0 17 -6 11 -11 11 -17 6 l
-5 6 r s
n 91 2220 m
0 23 r s
n 170 2220 m
0 40 r s
n 159 2333 m
-5 -6 -6 6 6 6 5 -6 4 c s
n 29 2496 m
180 0 r s
n 29 2502 m
180 0 r s
n 29 2496 m
0 40 r s
n 209 2496 m
0 40 r s
n 69 2620 m
101 0 r s
n 119 2569 m
0 102 r s
n 91 2710 m
-6 -6 -5 6 5 6 6 -6 4 c s
n 159 2710 m
-5 -6 -6 6 6 6 5 -6 4 c s
n 52 2873 m
118 23 r s
n 52 2879 m
90 17 r s
n 52 2918 m
118 -22 r s
n 52 2918 m
118 23 r s
n 52 2924 m
90 17 r s
n 52 2963 m
118 -22 r s
n 52 2856 m
0 40 r s
n 52 2946 m
0 34 r s
n 108 3081 m
12 -17 11 17 2 c s
n 91 3065 m
28 -28 28 28 2 c s
n 119 2997 m
0 96 r s
n 52 3149 m
118 0 r s
n 52 3155 m
118 0 r s
n 86 3188 m
45 0 r s
n 52 3132 m
-28 -6 28 0 0 90 3 c s
n 108 3155 m
0 33 r s
n 170 3132 m
28 -6 -28 0 0 90 3 c s
n 29 3290 m
180 0 r s
n 29 3295 m
180 0 r s
n 29 3256 m
0 39 r s
n 209 3256 m
0 39 r s
1 6 mul setlinewidth
2 6 mul setlinewidth
n 5453 547 m
0 3634 r s
n 5454 547 m
-119 0 r s
n 5454 698 m
-74 0 r s
n 5454 850 m
-74 0 r s
n 5454 1001 m
-74 0 r s
n 5454 1001 m
-119 0 r s
n 5454 1153 m
-74 0 r s
n 5454 1304 m
-74 0 r s
n 5454 1455 m
-74 0 r s
n 5454 1455 m
-119 0 r s
n 5454 1607 m
-74 0 r s
n 5454 1758 m
-74 0 r s
n 5454 1910 m
-74 0 r s
n 5454 1910 m
-119 0 r s
n 5454 2061 m
-74 0 r s
n 5454 2212 m
-74 0 r s
n 5454 2364 m
-74 0 r s
n 5454 2364 m
-119 0 r s
n 5454 2515 m
-74 0 r s
n 5454 2667 m
-74 0 r s
n 5454 2818 m
-74 0 r s
n 5454 2818 m
-119 0 r s
n 5454 2970 m
-74 0 r s
n 5454 3121 m
-74 0 r s
n 5454 3272 m
-74 0 r s
n 5454 3272 m
-119 0 r s
n 5454 3424 m
-74 0 r s
n 5454 3575 m
-74 0 r s
n 5454 3727 m
-74 0 r s
n 5454 3727 m
-119 0 r s
n 5454 3878 m
-74 0 r s
n 5454 4029 m
-74 0 r s
n 5454 4181 m
-74 0 r s
n 5454 4181 m
-119 0 r s
1 6 mul setlinewidth
1.000000 0.000000 0.000000 setrgbcolor
n 1255 2990 m
226 325 210 603 197 350 184 90 173 151 165 -404 155 -266 147 -566 l
543 7 442 -72 377 -43 330 -11 296 -63 268 -77 245 -7 7 c s
1.000000 0.000000 0.000000 setrgbcolor
n 1255 550 m
226 160 210 254 197 323 184 210 173 285 165 -195 155 204 147 1241 l
543 -21 442 -40 377 -20 330 -7 296 -3 268 13 245 63 7 c s
0.000000 1.000000 1.000000 setrgbcolor
n 1255 715 m
226 164 210 273 197 312 184 187 173 266 165 7 155 492 147 698 l
543 -10 442 -31 377 -10 330 5 296 5 268 6 245 69 7 c s
0.000000 1.000000 1.000000 setrgbcolor
n 1255 1090 m
226 103 210 236 197 352 184 229 173 240 165 -37 155 332 147 628 l
543 -2 442 -37 377 -4 330 16 296 -2 268 -6 245 28 7 c s
0.000000 1.000000 1.000000 setrgbcolor
n 1255 1274 m
226 91 210 151 197 232 184 289 173 347 165 13 155 263 147 531 l
543 -14 442 -4 377 -3 330 9 296 7 268 20 245 47 7 c s
0.000000 0.000000 1.000000 setrgbcolor
n 1255 1283 m
226 65 210 148 197 267 184 317 173 252 165 85 155 265 147 569 l
543 -8 442 -2 377 -2 330 11 296 13 268 7 245 17 7 c s
0.000000 0.000000 1.000000 setrgbcolor
n 1255 1254 m
226 57 210 128 197 264 184 346 173 327 165 42 155 291 147 497 l
543 -20 442 -2 377 17 330 13 296 23 268 12 245 20 7 c s
0.000000 0.000000 1.000000 setrgbcolor
n 1255 1052 m
226 54 210 135 197 240 184 285 173 311 165 42 155 404 147 707 l
543 -22 442 -4 377 11 330 19 296 9 268 7 245 19 7 c s
0.000000 1.000000 0.000000 setrgbcolor
n 1255 1264 m
226 80 210 152 197 217 184 205 173 181 165 61 155 250 147 708 l
543 -10 442 -2 377 11 330 29 296 17 268 17 245 38 7 c s
0.000000 1.000000 0.000000 setrgbcolor
n 1255 1100 m
226 66 210 169 197 258 184 244 173 217 165 -90 155 182 147 960 l
543 -8 442 -15 377 1 330 10 296 11 268 12 245 16 7 c s
0.000000 1.000000 0.000000 setrgbcolor
n 1255 948 m
226 70 210 225 197 406 184 288 173 304 165 -138 155 189 147 898 l
543 14 442 -52 377 -47 330 -10 296 0 268 -9 245 5 7 c s
1.000000 0.000000 0.000000 setrgbcolor
n 1270 546 m
226 46 210 306 197 732 184 242 173 225 165 -174 155 -18 132 1377 l
543 -8 442 -51 377 -32 330 -17 296 -15 268 -20 245 -22 7 c s
0.000000 0.000000 0.000000 setrgbcolor
n 1232 1057 m
-45 0 -23 -23 0 -45 23 -23 45 0 23 23 0 45 -23 23 l
s
n 1232 1057 m
-86 6 80 0 -74 6 68 0 -62 5 57 0 -51 6 45 0 l
-91 5 91 0 -91 6 91 0 -91 6 91 0 -91 5 91 0 l
-91 6 91 0 -91 5 91 0 -91 6 91 0 -91 6 91 0 l
-51 6 57 0 -63 6 68 0 -74 5 80 0 -85 6 91 0 l
s
n 1379 1806 m
-46 0 -22 -22 0 -46 22 -23 46 0 22 23 0 46 -22 22 l
s
n 1379 1806 m
-85 5 80 0 -74 6 68 0 -62 6 56 0 -51 5 46 0 l
-90 5 90 0 -90 6 90 0 -90 6 90 0 -90 6 90 0 l
-90 6 90 0 -90 5 90 0 -90 6 90 0 -90 6 90 0 l
-51 6 56 0 -62 6 68 0 -74 5 80 0 -85 6 90 0 l
s
n 1535 2048 m
-45 0 -23 -23 0 -45 23 -23 45 0 23 23 0 45 -23 23 l
s
n 1535 2048 m
-85 6 79 0 -74 5 69 0 -63 6 57 0 -51 6 45 0 l
-91 6 91 0 -91 6 91 0 -91 5 91 0 -91 6 91 0 l
-91 5 91 0 -91 6 91 0 -91 6 91 0 -91 5 91 0 l
-51 6 57 0 -63 5 69 0 -74 6 79 0 -85 6 91 0 l
s
n 1699 2095 m
-45 0 -23 -23 0 -45 23 -23 45 0 23 23 0 45 -23 23 l
s
n 1699 2095 m
-85 6 79 0 -74 5 69 0 -63 6 57 0 -51 6 45 0 l
-91 6 91 0 -91 6 91 0 -91 5 91 0 -91 6 91 0 l
-91 5 91 0 -91 6 91 0 -91 6 91 0 -91 5 91 0 l
-51 5 57 0 -63 6 69 0 -74 6 79 0 -85 6 91 0 l
s
n 1872 2235 m
-46 0 -23 -22 0 -46 23 -23 46 0 22 23 0 46 -22 22 l
s
n 1872 2235 m
-85 5 80 0 -74 6 68 0 -63 6 57 0 -51 5 46 0 l
-91 5 91 0 -91 6 91 0 -91 6 91 0 -91 6 91 0 l
-91 6 91 0 -91 5 91 0 -91 6 91 0 -91 6 91 0 l
-52 6 57 0 -62 6 68 0 -74 5 80 0 -86 6 91 0 l
s
n 2057 2500 m
-45 0 -23 -23 0 -45 23 -23 45 0 23 23 0 45 -23 23 l
s
n 2057 2500 m
-85 6 79 0 -73 6 68 0 -63 6 57 0 -51 5 45 0 l
-91 5 91 0 -91 6 91 0 -91 6 91 0 -91 5 91 0 l
-91 6 91 0 -91 5 91 0 -91 6 91 0 -91 6 91 0 l
-51 6 57 0 -62 6 68 0 -74 5 79 0 -85 6 91 0 l
s
n 2253 2829 m
-45 0 -23 -23 0 -46 23 -22 45 0 23 22 0 46 -23 23 l
s
n 2253 2829 m
-85 6 79 0 -74 5 69 0 -63 6 57 0 -51 6 45 0 l
-91 6 91 0 -91 6 91 0 -91 5 91 0 -91 6 91 0 l
-91 6 91 0 -91 6 91 0 -91 6 91 0 -91 5 91 0 l
-51 5 57 0 -63 6 69 0 -74 6 79 0 -85 5 91 0 l
s
n 2463 3039 m
-45 0 -23 -23 0 -45 23 -23 45 0 23 23 0 45 -23 23 l
s
n 2463 3039 m
-85 6 79 0 -74 6 68 0 -62 5 57 0 -51 6 45 0 l
-91 6 91 0 -91 6 91 0 -91 5 91 0 -91 6 91 0 l
-91 5 91 0 -91 6 91 0 -91 6 91 0 -91 5 91 0 l
-51 6 57 0 -63 5 68 0 -73 6 79 0 -85 6 91 0 l
s
n 2689 3135 m
-46 0 -22 -23 0 -45 22 -23 46 0 22 23 0 45 -22 23 l
s
n 2689 3135 m
-85 6 80 0 -74 6 68 0 -62 5 56 0 -51 6 46 0 l
-90 5 90 0 -90 6 90 0 -90 6 90 0 -90 5 90 0 l
-90 6 90 0 -90 5 90 0 -90 6 90 0 -90 6 90 0 l
-51 6 56 0 -62 5 68 0 -74 6 80 0 -85 6 90 0 l
s
n 2935 3160 m
-45 0 -23 -23 0 -45 23 -23 45 0 23 23 0 45 -23 23 l
s
n 2935 3160 m
-85 6 79 0 -73 5 68 0 -63 6 57 0 -51 6 45 0 l
-91 6 91 0 -91 6 91 0 -91 5 91 0 -91 6 91 0 l
-91 5 91 0 -91 6 91 0 -91 6 91 0 -91 5 91 0 l
-51 6 57 0 -62 5 68 0 -74 6 79 0 -85 6 91 0 l
s
n 3203 3160 m
-45 0 -23 -23 0 -45 23 -23 45 0 23 23 0 45 -23 23 l
s
n 3203 3160 m
-85 6 80 0 -74 6 68 0 -63 5 57 0 -51 6 45 0 l
-91 5 91 0 -91 6 91 0 -91 6 91 0 -91 5 91 0 l
-91 6 91 0 -91 5 91 0 -91 6 91 0 -91 6 91 0 l
-51 6 57 0 -62 6 68 0 -74 5 80 0 -86 6 91 0 l
s
n 3498 3160 m
-46 0 -22 -23 0 -46 22 -22 46 0 23 22 0 46 -23 23 l
s
n 3498 3160 m
-86 6 80 0 -74 5 68 0 -62 6 57 0 -52 6 46 0 l
-91 6 91 0 -91 6 91 0 -91 5 91 0 -91 6 91 0 l
-91 6 91 0 -91 6 91 0 -91 6 91 0 -91 5 91 0 l
-51 5 57 0 -63 6 68 0 -74 6 80 0 -85 5 91 0 l
s
n 3829 3165 m
-45 0 -23 -23 0 -45 23 -23 45 0 23 23 0 45 -23 23 l
s
n 3829 3165 m
-85 6 79 0 -73 6 68 0 -63 5 57 0 -51 6 45 0 l
-91 6 91 0 -91 6 91 0 -91 5 91 0 -91 6 91 0 l
-91 5 91 0 -91 6 91 0 -91 6 91 0 -91 5 91 0 l
-51 6 57 0 -62 5 68 0 -74 6 79 0 -85 6 91 0 l
s
n 4205 3155 m
-46 0 -22 -23 0 -46 22 -22 46 0 22 22 0 46 -22 23 l
s
n 4205 3155 m
-85 6 80 0 -74 5 68 0 -62 6 56 0 -51 6 46 0 l
-90 6 90 0 -90 6 90 0 -90 5 90 0 -90 6 90 0 l
-90 6 90 0 -90 6 90 0 -90 6 90 0 -90 5 90 0 l
-51 5 56 0 -62 6 68 0 -74 6 80 0 -85 5 90 0 l
s
n 4647 3129 m
-45 0 -23 -23 0 -45 23 -23 45 0 23 23 0 45 -23 23 l
s
n 4647 3129 m
-85 6 79 0 -74 6 68 0 -62 5 57 0 -51 6 45 0 l
-91 5 91 0 -91 6 91 0 -91 6 91 0 -91 5 91 0 l
-91 6 91 0 -91 5 91 0 -91 6 91 0 -91 6 91 0 l
-51 6 57 0 -63 5 68 0 -73 6 79 0 -85 6 91 0 l
s
n 5190 3122 m
-46 0 -22 -22 0 -46 22 -23 46 0 23 23 0 46 -23 22 l
s
n 5190 3122 m
-86 5 80 0 -74 6 68 0 -62 6 57 0 -52 5 46 0 l
-91 5 91 0 -91 6 91 0 -91 6 91 0 -91 6 91 0 l
-91 6 91 0 -91 5 91 0 -91 6 91 0 -91 6 91 0 l
-51 6 57 0 -63 6 68 0 -74 5 80 0 -85 6 91 0 l
s
n 1255 1102 m
226 95 210 210 197 330 184 265 173 139 165 47 155 243 147 749 l
543 -7 442 -27 377 -10 330 5 296 1 268 -1 245 26 7 c s
0.000000 0.000000 0.000000 setrgbcolor
n 1255 546 m
0 1435 r s
n 1212 1981 m
86 0 r s
n 1402 961 m
0 1781 r s
n 1359 961 m
86 0 r s
n 1359 2742 m
86 0 r s
n 1557 1314 m
0 1559 r s
n 1514 1314 m
87 0 r s
n 1514 2873 m
87 0 r s
n 1722 1481 m
0 1319 r s
n 1678 1481 m
87 0 r s
n 1678 2800 m
87 0 r s
n 1895 1624 m
0 1313 r s
n 1852 1624 m
86 0 r s
n 1852 2937 m
86 0 r s
n 2079 1833 m
0 1424 r s
n 2036 1833 m
86 0 r s
n 2036 3257 m
86 0 r s
n 2276 2220 m
0 1310 r s
n 2232 2220 m
87 0 r s
n 2232 3530 m
87 0 r s
n 2486 2505 m
0 1159 r s
n 2443 2505 m
86 0 r s
n 2443 3664 m
86 0 r s
n 2712 2673 m
0 1015 r s
n 2669 2673 m
86 0 r s
n 2669 3688 m
86 0 r s
n 2957 2754 m
0 903 r s
n 2914 2754 m
86 0 r s
n 2914 3657 m
86 0 r s
n 3225 2790 m
0 830 r s
n 3182 2790 m
86 0 r s
n 3182 3620 m
86 0 r s
n 3521 2822 m
0 768 r s
n 3478 2822 m
86 0 r s
n 3478 3590 m
86 0 r s
n 3851 2860 m
0 701 r s
n 3808 2860 m
86 0 r s
n 3808 3561 m
86 0 r s
n 4228 2877 m
0 647 r s
n 4185 2877 m
86 0 r s
n 4185 3524 m
86 0 r s
n 4670 2877 m
0 595 r s
n 4627 2877 m
86 0 r s
n 4627 3472 m
86 0 r s
n 5213 2890 m
0 555 r s
n 5170 2890 m
86 0 r s
n 5170 3445 m
86 0 r s
0.000000 0.000000 0.000000 setrgbcolor
n 1743 547 m
0 83 r s
n 1743 671 m
0 83 r s
n 1743 795 m
0 83 r s
n 1743 920 m
0 83 r s
n 1743 1044 m
0 83 r s
n 1743 1169 m
0 82 r s
n 1743 1293 m
0 83 r s
n 1743 1417 m
0 83 r s
n 1743 1542 m
0 83 r s
n 1743 1666 m
0 83 r s
n 1743 1790 m
0 83 r s
n 1743 1915 m
0 83 r s
n 1743 2039 m
0 83 r s
n 1743 2163 m
0 83 r s
n 1743 2288 m
0 83 r s
n 1743 2412 m
0 83 r s
n 1743 2536 m
0 83 r s
n 1743 2661 m
0 83 r s
n 1743 2785 m
0 83 r s
n 1743 2909 m
0 83 r s
n 1743 3034 m
0 83 r s
n 1743 3158 m
0 83 r s
n 1743 3283 m
0 82 r s
n 1743 3407 m
0 83 r s
n 1743 3531 m
0 83 r s
n 1743 3656 m
0 82 r s
n 1743 3780 m
0 83 r s
n 1743 3904 m
0 83 r s
n 1743 4029 m
0 83 r s
n 1743 4153 m
0 29 r s
showpage
% END OF PAGE
%% Trailer
%% EOF

cleartomark
countdictstack exch sub { end } repeat
restore grestore
%
% End Imported PIC File: /home/barden/Projects/ESO-inkind/DOCS/DR05/User Manual/figures/gdas_wdir_height_v.ps
%%EndDocument
%
% here ends figure;
pagefooter
showpage
%%Trailer
%EOF
