%!PS-Adobe-3.0 EPSF-3.0
%%BoundingBox: 9 17 122 505
%%HiResBoundingBox: 9.300000 17.758594 121.941406 504.800000
%%Title: Graphics produced by IDL
%%For: barden@Theon, /home/barden/Projects/ESO-inkind/DR06
%%Creator: IDL Version 7.1 (linux x86_64 m64)
%%CreationDate: Fri Feb 11 12:34:22 2011
%%DocumentData: Clean7bit
%%Requirements: color
%%LanguageLevel: 1
%%PageOrder: Ascend
%%Pages: (atend)
%%DocumentNeededResources: (atend)
%%EndComments
%%BeginProlog
%+ prolog.ps -- Prolog for IDL generated PostScript files
%+ Copyright (c) 1988-2009 ITT Visual Information Solutions. All Rights Reserved.
%v 5
/$IDL_DICT 40 dict def $IDL_DICT begin /bdef { bind def } bind def /C
{currentpoint newpath moveto} bdef /CP {currentpoint} bdef /D {currentpoint
stroke moveto} bdef /F {closepath fill} bdef /K { setgray } bdef /M {moveto}
bdef /N {rmoveto} bdef /P {lineto} bdef /R {rlineto} bdef /S {gsave show
grestore} bdef /X {currentpoint pop} bdef /Z {gsave currentpoint lineto 20
setlinewidth 1 setlinecap stroke grestore} bdef /L0 {[] 0 setdash} bdef /L1
{[40 100] 0 setdash} bdef /L2 {[200 200] 0 setdash} bdef /L3 {[200 100 50
100] 0 setdash} bdef /L4 {[300 100 50 100 50 100 50 100] 0 setdash} bdef /L5
{[400 200] 0 setdash} bdef /STDFONT { findfont exch scalefont setfont } bdef
/ISOFONT { findfont dup length dict begin { 1 index /FID ne {def} {pop pop}
ifelse } forall /Encoding ISOLatin1Encoding def currentdict end /idltmpfont
exch definefont exch scalefont setfont } bdef /ISOBULLET { gsave /Helvetica
findfont exch scalefont setfont (\267) show currentpoint grestore moveto}
bdef /MITERLIMIT { 2.5 setmiterlimit } bdef end
%%EndProlog
%%Page: 0 1
%%PageRequirements: color
%%PageResources: (atend)
%%PageOrientation: Landscape
%%PageBoundingBox: 0 0 141 566
%%BeginPageSetup
$IDL_DICT begin 0 566 translate 0.0283465 dup scale 270 rotate MITERLIMIT
%%IncludeResource: font Times-Roman
423.333 /Times-Roman STDFONT
%%EndPageSetup
10 setlinewidth L0 0.000 0.000 0.000 setrgbcolor 2220 1408 M 17114 0 R D
2220 1408 M 0 578 R D gsave 2220 880 translate 0 0 M -105.833 0 N
(1) show grestore 10451 1408 M 0 578 R D gsave 10451 880 translate 0 0 M
-211.667 0 N
(10) show grestore 18682 1408 M 0 578 R D gsave 18682 880 translate 0 0 M
-317.5 0 N
(100) show grestore 4698 1408 M 0 289 R D 6147 1408 M 0 289 R D 7176 1408 M
0 289 R D 7973 1408 M 0 289 R D 8625 1408 M 0 289 R D 9176 1408 M 0 289 R D
9654 1408 M 0 289 R D 10075 1408 M 0 289 R D 12929 1408 M 0 289 R D
14378 1408 M 0 289 R D 15407 1408 M 0 289 R D 16205 1408 M 0 289 R D
16856 1408 M 0 289 R D 17407 1408 M 0 289 R D 17885 1408 M 0 289 R D
18306 1408 M 0 289 R D gsave 10777 422 translate 0 0 M -1546.01 0 N
(geoelevation [km]) show grestore 2220 4296 M 17114 0 R D 2220 4296 M
0 -578 R D 10451 4296 M 0 -578 R D 18682 4296 M 0 -578 R D 4698 4296 M
0 -289 R D 6147 4296 M 0 -289 R D 7176 4296 M 0 -289 R D 7973 4296 M
0 -289 R D 8625 4296 M 0 -289 R D 9176 4296 M 0 -289 R D 9654 4296 M
0 -289 R D 10075 4296 M 0 -289 R D 12929 4296 M 0 -289 R D 14378 4296 M
0 -289 R D 15407 4296 M 0 -289 R D 16205 4296 M 0 -289 R D 16856 4296 M
0 -289 R D 17407 4296 M 0 -289 R D 17885 4296 M 0 -289 R D 18306 4296 M
0 -289 R D 2220 1408 M 0 2888 R D 2220 1408 M 342 0 R D
gsave 2109 1408 translate 0 0 M -105.833 0 N
( ) show grestore 2220 4296 M 342 0 R D gsave 2109 4050 translate 0 0 M
-105.833 0 N
( ) show grestore 19334 1408 M 0 2888 R D 19334 1408 M -342 0 R D
19334 4296 M -342 0 R D L1 2220 1539 M 17114 0 R D 2220 4165 M 17114 0 R D
L0 0.141 0.000 0.961 setrgbcolor 4698 1539 M 798 0 R 651 0 R 551 0 R 478 0 R
421 0 R 376 0 R 341 0 R 311 0 R 286 0 R 265 0 R 247 0 R 231 0 R 216 0 R
205 0 R 193 0 R 183 0 R 341 0 R 311 525 R 286 525 R 265 526 R 247 525 R
230 525 R 217 0 R 204 0 R 377 0 R 341 0 R 311 0 R 286 0 R 571 0 R 492 0 R
423 0 R 386 0 R 349 0 R 318 0 R 286 0 R 270 0 R 251 0 R 235 0 R 215 0 R
208 0 R 197 0 R 186 0 R 173 0 R 169 0 R 161 0 R 154 0 R 144 0 R 142 0 R
137 0 R D 0.082 1.000 0.000 setrgbcolor 4698 1539 M 798 0 R 651 394 R
551 551 R 478 552 R 421 577 R 376 552 R 341 0 R 311 0 R 286 0 R 265 0 R
247 0 R 231 0 R 216 0 R 205 0 R 193 0 R 183 0 R 341 0 R 311 -525 R
286 -525 R 265 -526 R 247 -525 R 230 -525 R 217 0 R 204 0 R 377 0 R 341 0 R
311 0 R 286 0 R D 1.000 0.000 0.000 setrgbcolor 4698 4165 M 798 0 R
651 -394 R 551 -551 R 478 -552 R 421 -577 R 376 -552 R D
%%PageTrailer
end
%%PageResources: font Times-Roman
%%Trailer
%%Pages: 1
%%DocumentNeededResources: font Times-Roman
%%EOF
